MacularDegeneration
…
ARMD <- vroom('ARMD.txt', show_col_types = FALSE) |> 
  mutate(Trt = as.factor(Trt)) |>
  mutate(Visit = as.numeric(factor(Time, levels = c(4,12,24,52)))) |>
  mutate(Difference = Vision - Baseline)
ARMD

# A tibble: 200 × 7
   Subject  Time Trt   Baseline Vision Visit Difference
     <dbl> <dbl> <fct>    <dbl>  <dbl> <dbl>      <dbl>
 1       1     4 0           41     42     1          1
 2       1    12 0           41     33     2         -8
 3       1    24 0           41     30     3        -11
 4       1    52 0           41     23     4        -18
 5       2     4 0           74     76     1          2
 6       2    12 0           74     65     2         -9
 7       2    24 0           74     50     3        -24
 8       2    52 0           74     46     4        -28
 9       3     4 0           40     42     1          2
10       3    12 0           40     40     2          0
# ℹ 190 more rows
…
